%YAML 1.1
%TAG !u! tag:unity3d.com,2011:
--- !u!21 &2100000
Material:
  serializedVersion: 6
  m_ObjectHideFlags: 0
  m_CorrespondingSourceObject: {fileID: 0}
  m_PrefabInstance: {fileID: 0}
  m_PrefabAsset: {fileID: 0}
  m_Name: M_VertReynolds
  m_Shader: {fileID: 4800000, guid: 1ed46a22602db5f4591bf5d3edd817b6, type: 3}
  m_ShaderKeywords: _BLUECHANNEL_ON _GREENCHANNEL_ON _REDCHANNEL_ON
  m_LightmapFlags: 0
  m_EnableInstancingVariants: 0
  m_DoubleSidedGI: 0
  m_CustomRenderQueue: -1
  stringTagMap: {}
  disabledShaderPasses: []
  m_SavedProperties:
    serializedVersion: 3
    m_TexEnvs: []
    m_Floats:
    - _BlueChannel: 1
    - _GreenChannel: 1
    - _Greyscale: 0
    - _RedChannel: 1
    - __dirty: 0
    m_Colors: []
  m_BuildTextureStacks: []
